[gd_scene load_steps=3 format=2]

[ext_resource path="res://assets/theme.tres" type="Theme" id=1]
[ext_resource path="res://game/levels/InputLabel.gd" type="Script" id=2]

[node name="InputLabel" type="Label"]
margin_left = -364.0
margin_top = 560.0
margin_right = 366.0
margin_bottom = 636.0
theme = ExtResource( 1 )
text = "Press %s to fire your engine"
script = ExtResource( 2 )
__meta__ = {
"_edit_use_anchors_": false
}
