[gd_scene load_steps=3 format=2]

[ext_resource path="res://singletons/MusicManager.gd" type="Script" id=1]
[ext_resource path="res://assets/music/Oh_God_The_Sleigh_Bells_Fell_Out_of_the_Ship.mp3" type="AudioStream" id=2]

[node name="MusicManager" type="Node"]
pause_mode = 2
script = ExtResource( 1 )

[node name="MusicPlayer" type="AudioStreamPlayer" parent="."]
stream = ExtResource( 2 )
volume_db = 10.0
autoplay = true
bus = "Music"
